{
    "/js/app.js": "/js/app.js?id=922f8fda05ba07cc6b91",
    "/css/app.css": "/css/app.css?id=d41d8cd98f00b204e980",
    "/css/admin.css": "/css/admin.css?id=9480690c032e0b4ced7b",
    "/css/front.css": "/css/front.css?id=91b0de0fcc73bbc6108e",
    "/js/app-label.js": "/js/app-label.js?id=5ecec4d99a428b9bf387"
}
